{
  "project_info": {
    "project_number": "336800930940",
    "project_id": "novoburger-bf731",
    "storage_bucket": "novoburger-bf731.appspot.com"
  },
  "client": [
    {
      "client_info": {
        "mobilesdk_app_id": "1:336800930940:android:93eda97909ad1f1c53fdf9",
        "android_client_info": {
          "package_name": "com.sifo.novo"
        }
      },
      "oauth_client": [
        {
          "client_id": "336800930940-0e7564r4pvgpd5o5o6vlte7kbuehha06.apps.googleusercontent.com",
          "client_type": 1,
          "android_info": {
            "package_name": "com.sifo.novo",
            "certificate_hash": "60adf2818bbedc13ff1989f418c6a682f04bc6e4"
          }
        },
        {
          "client_id": "336800930940-dljscecbrusfu16jv1j7lgpirlaf4mtu.apps.googleusercontent.com",
          "client_type": 3
        }
      ],
      "api_key": [
        {
          "current_key": "AIzaSyARolFjTAVdPF1iAHBcSDPInioQBOf53O8"
        }
      ],
      "services": {
        "appinvite_service": {
          "other_platform_oauth_client": [
            {
              "client_id": "336800930940-dljscecbrusfu16jv1j7lgpirlaf4mtu.apps.googleusercontent.com",
              "client_type": 3
            },
            {
              "client_id": "336800930940-gvbsr4gmrul4uo3i15pg2vafo71mvhgq.apps.googleusercontent.com",
              "client_type": 2,
              "ios_info": {
                "bundle_id": "com.sifo.novo"
              }
            }
          ]
        }
      }
    }
  ],
  "configuration_version": "1"
}